{
  "plugins": {
    "164": {
      "compatible": [
        "clion",
        "datagrip",
        "goland",
        "idea-community",
        "idea-ultimate",
        "mps",
        "phpstorm",
        "pycharm-community",
        "pycharm-professional",
        "rider",
        "ruby-mine",
        "rust-rover",
        "webstorm"
      ],
      "builds": {
        "243.24978.546": "https://plugins.jetbrains.com/files/164/676777/IdeaVIM-2.19.0.zip",
        "243.24978.79": "https://plugins.jetbrains.com/files/164/676777/IdeaVIM-2.19.0.zip",
        "243.25659.34": "https://plugins.jetbrains.com/files/164/676777/IdeaVIM-2.19.0.zip",
        "243.25659.40": "https://plugins.jetbrains.com/files/164/676777/IdeaVIM-2.19.0.zip",
        "243.25659.41": "https://plugins.jetbrains.com/files/164/676777/IdeaVIM-2.19.0.zip",
        "243.25659.42": "https://plugins.jetbrains.com/files/164/676777/IdeaVIM-2.19.0.zip",
        "243.25659.43": "https://plugins.jetbrains.com/files/164/676777/IdeaVIM-2.19.0.zip",
        "243.25659.45": "https://plugins.jetbrains.com/files/164/676777/IdeaVIM-2.19.0.zip",
        "243.25659.52": "https://plugins.jetbrains.com/files/164/676777/IdeaVIM-2.19.0.zip",
        "243.25659.59": "https://plugins.jetbrains.com/files/164/676777/IdeaVIM-2.19.0.zip",
        "251.23774.2": "https://plugins.jetbrains.com/files/164/676777/IdeaVIM-2.19.0.zip"
      },
      "name": "ideavim"
    },
    "631": {
      "compatible": [
        "idea-ultimate"
      ],
      "builds": {
        "243.25659.59": "https://plugins.jetbrains.com/files/631/692278/python-243.25659.59.zip"
      },
      "name": "python"
    },
    "6954": {
      "compatible": [
        "clion",
        "datagrip",
        "goland",
        "idea-community",
        "idea-ultimate",
        "mps",
        "phpstorm",
        "pycharm-community",
        "pycharm-professional",
        "rider",
        "ruby-mine",
        "rust-rover",
        "webstorm"
      ],
      "builds": {
        "243.24978.546": null,
        "243.24978.79": null,
        "243.25659.34": null,
        "243.25659.40": null,
        "243.25659.41": null,
        "243.25659.42": null,
        "243.25659.43": null,
        "243.25659.45": null,
        "243.25659.52": null,
        "243.25659.59": null,
        "251.23774.2": null
      },
      "name": "kotlin"
    },
    "6981": {
      "compatible": [
        "clion",
        "datagrip",
        "goland",
        "idea-community",
        "idea-ultimate",
        "mps",
        "phpstorm",
        "pycharm-community",
        "pycharm-professional",
        "rider",
        "ruby-mine",
        "rust-rover",
        "webstorm"
      ],
      "builds": {
        "243.24978.546": "https://plugins.jetbrains.com/files/6981/680778/ini-243.24978.60.zip",
        "243.24978.79": "https://plugins.jetbrains.com/files/6981/680778/ini-243.24978.60.zip",
        "243.25659.34": "https://plugins.jetbrains.com/files/6981/690635/ini-243.25659.54.zip",
        "243.25659.40": "https://plugins.jetbrains.com/files/6981/690635/ini-243.25659.54.zip",
        "243.25659.41": "https://plugins.jetbrains.com/files/6981/690635/ini-243.25659.54.zip",
        "243.25659.42": "https://plugins.jetbrains.com/files/6981/690635/ini-243.25659.54.zip",
        "243.25659.43": "https://plugins.jetbrains.com/files/6981/690635/ini-243.25659.54.zip",
        "243.25659.45": "https://plugins.jetbrains.com/files/6981/690635/ini-243.25659.54.zip",
        "243.25659.52": "https://plugins.jetbrains.com/files/6981/690635/ini-243.25659.54.zip",
        "243.25659.59": "https://plugins.jetbrains.com/files/6981/690635/ini-243.25659.54.zip",
        "251.23774.2": "https://plugins.jetbrains.com/files/6981/692066/ini-251.23774.16.zip"
      },
      "name": "ini"
    },
    "7219": {
      "compatible": [
        "idea-ultimate",
        "phpstorm"
      ],
      "builds": {
        "243.25659.45": "https://plugins.jetbrains.com/files/7219/605730/Symfony_Plugin-2024.1.276.zip",
        "243.25659.59": "https://plugins.jetbrains.com/files/7219/605730/Symfony_Plugin-2024.1.276.zip"
      },
      "name": "symfony-support"
    },
    "7320": {
      "compatible": [
        "idea-ultimate",
        "phpstorm"
      ],
      "builds": {
        "243.25659.45": "https://plugins.jetbrains.com/files/7320/630497/PHP_Annotations-11.1.1.zip",
        "243.25659.59": "https://plugins.jetbrains.com/files/7320/630497/PHP_Annotations-11.1.1.zip"
      },
      "name": "php-annotations"
    },
    "7322": {
      "compatible": [
        "clion",
        "datagrip",
        "goland",
        "idea-community",
        "idea-ultimate",
        "pycharm-community",
        "rider",
        "rust-rover",
        "webstorm"
      ],
      "builds": {
        "243.24978.79": "https://plugins.jetbrains.com/files/7322/680217/python-ce-243.24978.46.zip",
        "243.25659.34": "https://plugins.jetbrains.com/files/7322/680217/python-ce-243.24978.46.zip",
        "243.25659.40": "https://plugins.jetbrains.com/files/7322/680217/python-ce-243.24978.46.zip",
        "243.25659.42": "https://plugins.jetbrains.com/files/7322/680217/python-ce-243.24978.46.zip",
        "243.25659.43": "https://plugins.jetbrains.com/files/7322/680217/python-ce-243.24978.46.zip",
        "243.25659.52": "https://plugins.jetbrains.com/files/7322/680217/python-ce-243.24978.46.zip",
        "243.25659.59": "https://plugins.jetbrains.com/files/7322/680217/python-ce-243.24978.46.zip",
        "251.23774.2": "https://plugins.jetbrains.com/files/7322/692175/python-ce-251.23774.16.zip"
      },
      "name": "python-community-edition"
    },
    "8182": {
      "compatible": [
        "clion",
        "datagrip",
        "goland",
        "idea-community",
        "idea-ultimate",
        "mps",
        "phpstorm",
        "pycharm-community",
        "pycharm-professional",
        "rider",
        "ruby-mine",
        "webstorm"
      ],
      "builds": {
        "243.24978.546": null,
        "243.24978.79": null,
        "243.25659.34": null,
        "243.25659.40": null,
        "243.25659.41": null,
        "243.25659.42": null,
        "243.25659.43": null,
        "243.25659.45": null,
        "243.25659.52": null,
        "243.25659.59": null
      },
      "name": "-deprecated-rust"
    },
    "8182-beta": {
      "compatible": [
        "clion",
        "datagrip",
        "goland",
        "idea-community",
        "idea-ultimate",
        "mps",
        "phpstorm",
        "pycharm-community",
        "pycharm-professional",
        "rider",
        "ruby-mine",
        "webstorm"
      ],
      "builds": {
        "243.24978.546": null,
        "243.24978.79": null,
        "243.25659.34": null,
        "243.25659.40": null,
        "243.25659.41": null,
        "243.25659.42": null,
        "243.25659.43": null,
        "243.25659.45": null,
        "243.25659.52": null,
        "243.25659.59": null
      },
      "name": "-deprecated-rust-beta"
    },
    "8554": {
      "compatible": [
        "clion",
        "datagrip",
        "goland",
        "idea-community",
        "idea-ultimate",
        "mps",
        "phpstorm",
        "pycharm-community",
        "pycharm-professional",
        "rider",
        "ruby-mine",
        "rust-rover",
        "webstorm"
      ],
      "builds": {
        "243.24978.546": "https://plugins.jetbrains.com/files/8554/684425/featuresTrainer-243.24978.79.zip",
        "243.24978.79": "https://plugins.jetbrains.com/files/8554/684425/featuresTrainer-243.24978.79.zip",
        "243.25659.34": "https://plugins.jetbrains.com/files/8554/690630/featuresTrainer-243.25659.54.zip",
        "243.25659.40": "https://plugins.jetbrains.com/files/8554/690630/featuresTrainer-243.25659.54.zip",
        "243.25659.41": "https://plugins.jetbrains.com/files/8554/690630/featuresTrainer-243.25659.54.zip",
        "243.25659.42": "https://plugins.jetbrains.com/files/8554/690630/featuresTrainer-243.25659.54.zip",
        "243.25659.43": "https://plugins.jetbrains.com/files/8554/690630/featuresTrainer-243.25659.54.zip",
        "243.25659.45": "https://plugins.jetbrains.com/files/8554/690630/featuresTrainer-243.25659.54.zip",
        "243.25659.52": "https://plugins.jetbrains.com/files/8554/690630/featuresTrainer-243.25659.54.zip",
        "243.25659.59": "https://plugins.jetbrains.com/files/8554/690630/featuresTrainer-243.25659.54.zip",
        "251.23774.2": null
      },
      "name": "ide-features-trainer"
    },
    "8607": {
      "compatible": [
        "clion",
        "datagrip",
        "goland",
        "idea-community",
        "idea-ultimate",
        "mps",
        "phpstorm",
        "pycharm-community",
        "pycharm-professional",
        "rider",
        "ruby-mine",
        "rust-rover",
        "webstorm"
      ],
      "builds": {
        "243.24978.546": "https://plugins.jetbrains.com/files/8607/673303/NixIDEA-0.4.0.17.zip",
        "243.24978.79": "https://plugins.jetbrains.com/files/8607/673303/NixIDEA-0.4.0.17.zip",
        "243.25659.34": "https://plugins.jetbrains.com/files/8607/673303/NixIDEA-0.4.0.17.zip",
        "243.25659.40": "https://plugins.jetbrains.com/files/8607/673303/NixIDEA-0.4.0.17.zip",
        "243.25659.41": "https://plugins.jetbrains.com/files/8607/673303/NixIDEA-0.4.0.17.zip",
        "243.25659.42": "https://plugins.jetbrains.com/files/8607/673303/NixIDEA-0.4.0.17.zip",
        "243.25659.43": "https://plugins.jetbrains.com/files/8607/673303/NixIDEA-0.4.0.17.zip",
        "243.25659.45": "https://plugins.jetbrains.com/files/8607/673303/NixIDEA-0.4.0.17.zip",
        "243.25659.52": "https://plugins.jetbrains.com/files/8607/673303/NixIDEA-0.4.0.17.zip",
        "243.25659.59": "https://plugins.jetbrains.com/files/8607/673303/NixIDEA-0.4.0.17.zip",
        "251.23774.2": "https://plugins.jetbrains.com/files/8607/673303/NixIDEA-0.4.0.17.zip"
      },
      "name": "nixidea"
    },
    "9568": {
      "compatible": [
        "goland",
        "idea-ultimate"
      ],
      "builds": {
        "243.25659.52": "https://plugins.jetbrains.com/files/9568/680198/go-plugin-243.24978.46.zip",
        "243.25659.59": "https://plugins.jetbrains.com/files/9568/680198/go-plugin-243.24978.46.zip"
      },
      "name": "go"
    },
    "10037": {
      "compatible": [
        "clion",
        "datagrip",
        "goland",
        "idea-community",
        "idea-ultimate",
        "mps",
        "phpstorm",
        "pycharm-community",
        "pycharm-professional",
        "rider",
        "ruby-mine",
        "rust-rover",
        "webstorm"
      ],
      "builds": {
        "243.24978.546": "https://plugins.jetbrains.com/files/10037/658496/intellij-csv-validator-4.0.2.zip",
        "243.24978.79": "https://plugins.jetbrains.com/files/10037/658496/intellij-csv-validator-4.0.2.zip",
        "243.25659.34": "https://plugins.jetbrains.com/files/10037/658496/intellij-csv-validator-4.0.2.zip",
        "243.25659.40": "https://plugins.jetbrains.com/files/10037/658496/intellij-csv-validator-4.0.2.zip",
        "243.25659.41": "https://plugins.jetbrains.com/files/10037/658496/intellij-csv-validator-4.0.2.zip",
        "243.25659.42": "https://plugins.jetbrains.com/files/10037/658496/intellij-csv-validator-4.0.2.zip",
        "243.25659.43": "https://plugins.jetbrains.com/files/10037/658496/intellij-csv-validator-4.0.2.zip",
        "243.25659.45": "https://plugins.jetbrains.com/files/10037/658496/intellij-csv-validator-4.0.2.zip",
        "243.25659.52": "https://plugins.jetbrains.com/files/10037/658496/intellij-csv-validator-4.0.2.zip",
        "243.25659.59": "https://plugins.jetbrains.com/files/10037/658496/intellij-csv-validator-4.0.2.zip",
        "251.23774.2": "https://plugins.jetbrains.com/files/10037/658496/intellij-csv-validator-4.0.2.zip"
      },
      "name": "csv-editor"
    },
    "12062": {
      "compatible": [
        "clion",
        "datagrip",
        "goland",
        "idea-community",
        "idea-ultimate",
        "mps",
        "phpstorm",
        "pycharm-community",
        "pycharm-professional",
        "rider",
        "ruby-mine",
        "rust-rover",
        "webstorm"
      ],
      "builds": {
        "243.24978.546": "https://plugins.jetbrains.com/files/12062/630060/keymap-vscode-243.21565.122.zip",
        "243.24978.79": "https://plugins.jetbrains.com/files/12062/630060/keymap-vscode-243.21565.122.zip",
        "243.25659.34": "https://plugins.jetbrains.com/files/12062/630060/keymap-vscode-243.21565.122.zip",
        "243.25659.40": "https://plugins.jetbrains.com/files/12062/630060/keymap-vscode-243.21565.122.zip",
        "243.25659.41": "https://plugins.jetbrains.com/files/12062/630060/keymap-vscode-243.21565.122.zip",
        "243.25659.42": "https://plugins.jetbrains.com/files/12062/630060/keymap-vscode-243.21565.122.zip",
        "243.25659.43": "https://plugins.jetbrains.com/files/12062/630060/keymap-vscode-243.21565.122.zip",
        "243.25659.45": "https://plugins.jetbrains.com/files/12062/630060/keymap-vscode-243.21565.122.zip",
        "243.25659.52": "https://plugins.jetbrains.com/files/12062/630060/keymap-vscode-243.21565.122.zip",
        "243.25659.59": "https://plugins.jetbrains.com/files/12062/630060/keymap-vscode-243.21565.122.zip",
        "251.23774.2": "https://plugins.jetbrains.com/files/12062/692127/keymap-vscode-251.23774.16.zip"
      },
      "name": "vscode-keymap"
    },
    "12559": {
      "compatible": [
        "clion",
        "datagrip",
        "goland",
        "idea-community",
        "idea-ultimate",
        "mps",
        "phpstorm",
        "pycharm-community",
        "pycharm-professional",
        "rider",
        "ruby-mine",
        "rust-rover",
        "webstorm"
      ],
      "builds": {
        "243.24978.546": "https://plugins.jetbrains.com/files/12559/629985/keymap-eclipse-243.21565.122.zip",
        "243.24978.79": "https://plugins.jetbrains.com/files/12559/629985/keymap-eclipse-243.21565.122.zip",
        "243.25659.34": "https://plugins.jetbrains.com/files/12559/629985/keymap-eclipse-243.21565.122.zip",
        "243.25659.40": "https://plugins.jetbrains.com/files/12559/629985/keymap-eclipse-243.21565.122.zip",
        "243.25659.41": "https://plugins.jetbrains.com/files/12559/629985/keymap-eclipse-243.21565.122.zip",
        "243.25659.42": "https://plugins.jetbrains.com/files/12559/629985/keymap-eclipse-243.21565.122.zip",
        "243.25659.43": "https://plugins.jetbrains.com/files/12559/629985/keymap-eclipse-243.21565.122.zip",
        "243.25659.45": "https://plugins.jetbrains.com/files/12559/629985/keymap-eclipse-243.21565.122.zip",
        "243.25659.52": "https://plugins.jetbrains.com/files/12559/629985/keymap-eclipse-243.21565.122.zip",
        "243.25659.59": "https://plugins.jetbrains.com/files/12559/629985/keymap-eclipse-243.21565.122.zip",
        "251.23774.2": null
      },
      "name": "eclipse-keymap"
    },
    "13017": {
      "compatible": [
        "clion",
        "datagrip",
        "goland",
        "idea-community",
        "idea-ultimate",
        "mps",
        "phpstorm",
        "pycharm-community",
        "pycharm-professional",
        "rider",
        "ruby-mine",
        "rust-rover",
        "webstorm"
      ],
      "builds": {
        "243.24978.546": "https://plugins.jetbrains.com/files/13017/630016/keymap-visualStudio-243.21565.122.zip",
        "243.24978.79": "https://plugins.jetbrains.com/files/13017/630016/keymap-visualStudio-243.21565.122.zip",
        "243.25659.34": "https://plugins.jetbrains.com/files/13017/630016/keymap-visualStudio-243.21565.122.zip",
        "243.25659.40": "https://plugins.jetbrains.com/files/13017/630016/keymap-visualStudio-243.21565.122.zip",
        "243.25659.41": "https://plugins.jetbrains.com/files/13017/630016/keymap-visualStudio-243.21565.122.zip",
        "243.25659.42": "https://plugins.jetbrains.com/files/13017/630016/keymap-visualStudio-243.21565.122.zip",
        "243.25659.43": "https://plugins.jetbrains.com/files/13017/630016/keymap-visualStudio-243.21565.122.zip",
        "243.25659.45": "https://plugins.jetbrains.com/files/13017/630016/keymap-visualStudio-243.21565.122.zip",
        "243.25659.52": "https://plugins.jetbrains.com/files/13017/630016/keymap-visualStudio-243.21565.122.zip",
        "243.25659.59": "https://plugins.jetbrains.com/files/13017/630016/keymap-visualStudio-243.21565.122.zip",
        "251.23774.2": null
      },
      "name": "visual-studio-keymap"
    },
    "14059": {
      "compatible": [
        "clion",
        "datagrip",
        "goland",
        "idea-community",
        "idea-ultimate",
        "mps",
        "phpstorm",
        "pycharm-community",
        "pycharm-professional",
        "rider",
        "ruby-mine",
        "rust-rover",
        "webstorm"
      ],
      "builds": {
        "243.24978.546": "https://plugins.jetbrains.com/files/14059/82616/darcula-pitch-black.jar",
        "243.24978.79": "https://plugins.jetbrains.com/files/14059/82616/darcula-pitch-black.jar",
        "243.25659.34": "https://plugins.jetbrains.com/files/14059/82616/darcula-pitch-black.jar",
        "243.25659.40": "https://plugins.jetbrains.com/files/14059/82616/darcula-pitch-black.jar",
        "243.25659.41": "https://plugins.jetbrains.com/files/14059/82616/darcula-pitch-black.jar",
        "243.25659.42": "https://plugins.jetbrains.com/files/14059/82616/darcula-pitch-black.jar",
        "243.25659.43": "https://plugins.jetbrains.com/files/14059/82616/darcula-pitch-black.jar",
        "243.25659.45": "https://plugins.jetbrains.com/files/14059/82616/darcula-pitch-black.jar",
        "243.25659.52": "https://plugins.jetbrains.com/files/14059/82616/darcula-pitch-black.jar",
        "243.25659.59": "https://plugins.jetbrains.com/files/14059/82616/darcula-pitch-black.jar",
        "251.23774.2": "https://plugins.jetbrains.com/files/14059/82616/darcula-pitch-black.jar"
      },
      "name": "darcula-pitch-black"
    },
    "17718": {
      "compatible": [
        "clion",
        "datagrip",
        "goland",
        "idea-community",
        "idea-ultimate",
        "mps",
        "phpstorm",
        "pycharm-community",
        "pycharm-professional",
        "rider",
        "ruby-mine",
        "rust-rover",
        "webstorm"
      ],
      "builds": {
        "243.24978.546": "https://plugins.jetbrains.com/files/17718/688477/github-copilot-intellij-1.5.37-242.zip",
        "243.24978.79": "https://plugins.jetbrains.com/files/17718/688477/github-copilot-intellij-1.5.37-242.zip",
        "243.25659.34": "https://plugins.jetbrains.com/files/17718/688477/github-copilot-intellij-1.5.37-242.zip",
        "243.25659.40": "https://plugins.jetbrains.com/files/17718/688477/github-copilot-intellij-1.5.37-242.zip",
        "243.25659.41": "https://plugins.jetbrains.com/files/17718/688477/github-copilot-intellij-1.5.37-242.zip",
        "243.25659.42": "https://plugins.jetbrains.com/files/17718/688477/github-copilot-intellij-1.5.37-242.zip",
        "243.25659.43": "https://plugins.jetbrains.com/files/17718/688477/github-copilot-intellij-1.5.37-242.zip",
        "243.25659.45": "https://plugins.jetbrains.com/files/17718/688477/github-copilot-intellij-1.5.37-242.zip",
        "243.25659.52": "https://plugins.jetbrains.com/files/17718/688477/github-copilot-intellij-1.5.37-242.zip",
        "243.25659.59": "https://plugins.jetbrains.com/files/17718/688477/github-copilot-intellij-1.5.37-242.zip",
        "251.23774.2": "https://plugins.jetbrains.com/files/17718/688477/github-copilot-intellij-1.5.37-242.zip"
      },
      "name": "github-copilot"
    },
    "18444": {
      "compatible": [
        "clion",
        "datagrip",
        "goland",
        "idea-community",
        "idea-ultimate",
        "mps",
        "phpstorm",
        "pycharm-community",
        "pycharm-professional",
        "rider",
        "ruby-mine",
        "rust-rover",
        "webstorm"
      ],
      "builds": {
        "243.24978.546": "https://plugins.jetbrains.com/files/18444/165585/NetBeans6.5Keymap.zip",
        "243.24978.79": "https://plugins.jetbrains.com/files/18444/165585/NetBeans6.5Keymap.zip",
        "243.25659.34": "https://plugins.jetbrains.com/files/18444/165585/NetBeans6.5Keymap.zip",
        "243.25659.40": "https://plugins.jetbrains.com/files/18444/165585/NetBeans6.5Keymap.zip",
        "243.25659.41": "https://plugins.jetbrains.com/files/18444/165585/NetBeans6.5Keymap.zip",
        "243.25659.42": "https://plugins.jetbrains.com/files/18444/165585/NetBeans6.5Keymap.zip",
        "243.25659.43": "https://plugins.jetbrains.com/files/18444/165585/NetBeans6.5Keymap.zip",
        "243.25659.45": "https://plugins.jetbrains.com/files/18444/165585/NetBeans6.5Keymap.zip",
        "243.25659.52": "https://plugins.jetbrains.com/files/18444/165585/NetBeans6.5Keymap.zip",
        "243.25659.59": "https://plugins.jetbrains.com/files/18444/165585/NetBeans6.5Keymap.zip",
        "251.23774.2": "https://plugins.jetbrains.com/files/18444/165585/NetBeans6.5Keymap.zip"
      },
      "name": "netbeans-6-5-keymap"
    },
    "22407": {
      "compatible": [
        "clion",
        "idea-ultimate",
        "rust-rover"
      ],
      "builds": {
        "243.25659.42": "https://plugins.jetbrains.com/files/22407/690878/intellij-rust-243.25659.54.zip",
        "243.25659.59": "https://plugins.jetbrains.com/files/22407/690878/intellij-rust-243.25659.54.zip",
        "251.23774.2": "https://plugins.jetbrains.com/files/22407/690588/intellij-rust-251.23774.2.zip"
      },
      "name": "rust"
    }
  },
  "files": {
    "https://plugins.jetbrains.com/files/10037/658496/intellij-csv-validator-4.0.2.zip": "sha256-frvQ+Dm1ueID6+vNlja0HtecGyn+ppq9GTgmU3kQ+58=",
    "https://plugins.jetbrains.com/files/12062/630060/keymap-vscode-243.21565.122.zip": "sha256-phv8MTGKNGzRviKzX+nIVTbkX4WkU82QVO5zXUQLtAo=",
    "https://plugins.jetbrains.com/files/12062/692127/keymap-vscode-251.23774.16.zip": "sha256-Dbku4MRsgaqtwYUBXWIvL7YD6i6syz4UiR4k/WU590w=",
    "https://plugins.jetbrains.com/files/12559/629985/keymap-eclipse-243.21565.122.zip": "sha256-/g1ucT18ywVJnCePH7WyMWKgM9umowBz5wFObmO7cws=",
    "https://plugins.jetbrains.com/files/13017/630016/keymap-visualStudio-243.21565.122.zip": "sha256-VQqK0Cm9ddXN63KYIqimuGOh7EB9VvdlErp/VrWx8SA=",
    "https://plugins.jetbrains.com/files/14059/82616/darcula-pitch-black.jar": "sha256-eXInfAqY3yEZRXCAuv3KGldM1pNKEioNwPB0rIGgJFw=",
    "https://plugins.jetbrains.com/files/164/676777/IdeaVIM-2.19.0.zip": "sha256-yKpWQZGxfsKwPVTJLHpF4KGJ5ANCd73uxHlfdFE4Qf4=",
    "https://plugins.jetbrains.com/files/17718/688477/github-copilot-intellij-1.5.37-242.zip": "sha256-7dAi3KPTze2Kht0snxzuZreRm2gYrAnGVUyOjKMdMkA=",
    "https://plugins.jetbrains.com/files/18444/165585/NetBeans6.5Keymap.zip": "sha256-KrzZTKZMQqoEMw+vDUv2jjs0EX0leaPBkU8H/ecq/oI=",
    "https://plugins.jetbrains.com/files/22407/690588/intellij-rust-251.23774.2.zip": "sha256-edi+GRQ6+CECi/nnyhUfB0117utSfD36fbaelSzpGZo=",
    "https://plugins.jetbrains.com/files/22407/690878/intellij-rust-243.25659.54.zip": "sha256-LqBhEiWCVaLRM2WsflLWX0N+i6Q8ZmHoHaJnJSEKbS0=",
    "https://plugins.jetbrains.com/files/631/692278/python-243.25659.59.zip": "sha256-yB0Hak9H/HRy7GJPbGHur6yHk67nHqkxeKkktKcKmyE=",
    "https://plugins.jetbrains.com/files/6981/680778/ini-243.24978.60.zip": "sha256-m2iKdm4f1h+k1XdQvJCd8T83jEKip+H1E1p8XMfrGcg=",
    "https://plugins.jetbrains.com/files/6981/690635/ini-243.25659.54.zip": "sha256-TiVoHX56uEAsSWqE7n0jrePiabN3gcNRFNuSeBhvul4=",
    "https://plugins.jetbrains.com/files/6981/692066/ini-251.23774.16.zip": "sha256-zM/ERv/Zo7ZdaWTu+ElSlAMWwQ3kiygiDd7s2AaUCPw=",
    "https://plugins.jetbrains.com/files/7219/605730/Symfony_Plugin-2024.1.276.zip": "sha256-drNmhJMe+kuY2fcHjY+SQmkACvFk0rVI4vAhyZ/bgLc=",
    "https://plugins.jetbrains.com/files/7320/630497/PHP_Annotations-11.1.1.zip": "sha256-05aBYbqNIuwe/JTwntFdIqML8NHbTOwVusl1P9FzuYY=",
    "https://plugins.jetbrains.com/files/7322/680217/python-ce-243.24978.46.zip": "sha256-4KkUOSN9KnBjpo92LvkN/7ZtDG/gSAFHgDf5ESSsgoY=",
    "https://plugins.jetbrains.com/files/7322/692175/python-ce-251.23774.16.zip": "sha256-q+CUtjNlBrqPwVzsJQxDRL+fAOlZ9g6ier2vxg2IIb8=",
    "https://plugins.jetbrains.com/files/8554/684425/featuresTrainer-243.24978.79.zip": "sha256-1oI8hw6YYhUzhfv5RjtlBFG0OvucqVs/XUXMioRIuzA=",
    "https://plugins.jetbrains.com/files/8554/690630/featuresTrainer-243.25659.54.zip": "sha256-xmjPvJVe27gL1DEwtzvKvzEkF80ZGHUCKjLOY2nO+T0=",
    "https://plugins.jetbrains.com/files/8607/673303/NixIDEA-0.4.0.17.zip": "sha256-OFisV6Vs/xlbDvchxfrREDVgVh7wcfGnot+zUrgQU6M=",
    "https://plugins.jetbrains.com/files/9568/680198/go-plugin-243.24978.46.zip": "sha256-H2zxIwMN/m7s7Ewhy55QO45lQcUOhG/xD29wj6V/vIM="
  }
}
